<svg width="278" height="184" viewBox="0 0 278 184" fill="none" xmlns="http://www.w3.org/2000/svg">
<path d="M276.843 180.86C283.548 167.591 264.385 101.246 131.515 101.246C35.6094 101.246 -8.40869 155.551 1.32282 183.072" fill="url(#paint0_radial_15_349)"/>
<mask id="mask0_15_349" style="mask-type:luminance" maskUnits="userSpaceOnUse" x="0" y="101" width="278" height="83">
<path d="M276.843 180.86C283.548 167.591 264.385 101.246 131.515 101.246C35.6094 101.246 -8.40869 155.551 1.32282 183.072" fill="white"/>
</mask>
<g mask="url(#mask0_15_349)">
<ellipse opacity="0.671968" cx="111.022" cy="159.835" rx="7.30724" ry="4.05881" fill="url(#paint1_linear_15_349)"/>
<ellipse opacity="0.256348" cx="185.605" cy="132.256" rx="11.5292" ry="6.33175" fill="url(#paint2_linear_15_349)"/>
<ellipse opacity="0.729957" cx="54.3983" cy="115.37" rx="11.5292" ry="6.33175" fill="url(#paint3_linear_15_349)"/>
</g>
<path opacity="0.5" d="M108.313 115.96C108.313 115.96 136.587 129.254 147.803 134.357C156.688 138.398 202.436 151.326 207.886 147.652C213.336 143.977 225.369 133.891 221.396 126.98C217.424 120.07 196.532 107.663 186.54 105.85C176.548 104.037 147.978 112.278 147.978 112.278L123.608 116.463L108.313 115.96Z" fill="url(#paint4_linear_15_349)"/>
<path d="M129.27 56.5167L97.7635 79.6833L106.164 59.9738L137.717 39.9424L129.27 56.5167Z" fill="#E2E7EC"/>
<path d="M105.64 60.3807L137.717 40.3V95.0655L108.313 115.681L105.64 60.3807Z" fill="#D8DFE6"/>
<path d="M137.717 40.3L186.902 51.8068V106.592L137.717 95.0855V40.3Z" fill="#E9EFF1"/>
<path d="M105.64 60.378L155.894 72.1222V126.908L108.313 115.982L105.64 60.378Z" fill="#E8EAEB"/>
<path d="M154.824 72.1422L186.901 52.0615V106.827L154.824 126.908V72.1422Z" fill="#D8DFE6"/>
<mask id="mask1_15_349" style="mask-type:luminance" maskUnits="userSpaceOnUse" x="154" y="52" width="33" height="75">
<path d="M154.824 72.1422L186.901 52.0615V106.827L154.824 126.908V72.1422Z" fill="white"/>
</mask>
<g mask="url(#mask1_15_349)">
<rect x="166.739" y="47.4979" width="10.0813" height="83.9737" fill="#C7D0D9"/>
</g>
<path d="M169.248 88.4154L200.801 68.3839L186.377 52.0615L154.824 72.093L169.248 88.4154Z" fill="#E2E7EC"/>
<path opacity="0.5" d="M81.034 117.34L130.66 142.697L135.293 129.26L86.6024 113.064L81.034 117.34Z" fill="url(#paint5_linear_15_349)"/>
<path d="M79.679 75.6563L96.791 77.0053L92.991 114.227C92.991 114.227 92.6582 114.599 91.8509 114.455C91.0436 114.31 90.1966 113.861 90.1966 113.861L87.6516 84.2707C87.6516 84.2707 86.1796 94.7339 86.2824 97.6777C86.3599 99.8955 87.1182 102.601 87.5241 104.915C87.8734 106.907 88.6083 111.667 88.6083 111.667C88.6083 111.667 87.7399 112.064 87.2781 112.153C86.8162 112.243 86.2241 111.75 86.2241 111.75C86.2241 111.75 80.2244 100.104 80.1472 97.8919C80.07 95.6801 79.679 75.6563 79.679 75.6563Z" fill="url(#paint6_linear_15_349)"/>
<path d="M85.9586 111.696C85.9586 111.696 85.1965 113.068 84.2496 113.905C83.3028 114.742 81.4345 115.741 81.0085 116.195C80.5826 116.649 81.0478 117.318 81.0478 117.318L85.6269 117.158L89.2858 114.062L88.7746 111.112L85.9586 111.696Z" fill="#677285"/>
<path d="M93.4219 113.285L94.4909 116.25C94.4909 116.25 92.7354 117.61 90.3098 117.988C87.8843 118.366 86.213 117.785 86.213 117.785C86.213 117.785 85.775 116.903 86.6004 116.525C86.9795 116.352 87.8292 115.632 88.5752 114.71C88.912 114.294 90.1805 113.398 90.1805 113.398L93.4219 113.285Z" fill="#677285"/>
<path d="M101.088 56.2503C101.088 56.2503 102.49 58.3839 103.35 57.813C104.21 57.2421 109.579 51.7392 109.579 51.7392C109.579 51.7392 111.176 50.5097 111.472 50.802C111.767 51.0942 110.939 51.7392 110.939 51.7392C110.939 51.7392 112.682 51.9104 113.226 51.9104C113.771 51.9104 114.916 52.7798 114.167 53.0724C113.419 53.3649 110.513 53.4372 110.513 53.4372C110.513 53.4372 106.102 61.7784 103.804 62.3698C101.506 62.9612 98.3389 59.6163 98.3389 59.6163L101.088 56.2503Z" fill="#FDE7E6"/>
<path d="M78.678 56.4033C78.678 56.4033 77.7583 58.2862 76.925 57.8345C76.0917 57.3828 71.4159 52.4518 71.4159 52.4518C71.4159 52.4518 69.8588 51.4981 69.478 51.6697C69.0972 51.8413 70.0359 52.4518 70.0359 52.4518C70.0359 52.4518 67.745 52.6377 67.3141 52.8109C66.8831 52.9841 66.3812 53.5153 67.0328 53.7568C67.6844 53.9982 70.1786 54.17 70.1786 54.17C70.1786 54.17 73.6461 61.0219 76.2732 61.8231C78.9002 62.6243 81.1384 59.4674 81.1384 59.4674L78.678 56.4033Z" fill="#FDE7E6"/>
<path d="M87.1833 50.6367V47.2702C87.1833 47.2702 85.4378 47.3586 84.7283 46.1898C84.0188 45.0211 83.8271 41.7043 83.8271 41.7043L84.3618 40.1665L89.6191 39.9444L92.381 42.298L91.095 44.5693L90.8499 45.0058L92.0756 50.1678L87.1833 50.6367Z" fill="#FDE7E6"/>
<mask id="mask2_15_349" style="mask-type:luminance" maskUnits="userSpaceOnUse" x="83" y="39" width="10" height="12">
<path d="M87.1833 50.6367V47.2702C87.1833 47.2702 85.4378 47.3586 84.7283 46.1898C84.0188 45.0211 83.8271 41.7043 83.8271 41.7043L84.3618 40.1665L89.6191 39.9444L92.381 42.298L91.095 44.5693L90.8499 45.0058L92.0756 50.1678L87.1833 50.6367Z" fill="white"/>
</mask>
<g mask="url(#mask2_15_349)">
<path d="M90.6035 44.0714C89.0498 46.0037 86.3626 47.3542 86.0127 47.3542C85.6628 47.3542 87.9667 49.7777 87.9667 49.7777L89.841 50.637L92.5014 50.073L93.4512 47.3542L91.7746 44.2696C91.7746 44.2696 92.1572 42.1391 90.6035 44.0714Z" fill="url(#paint7_linear_15_349)"/>
</g>
<path d="M77.5613 57.7558L80.1448 61.2357L81.7925 59.4957C81.7925 59.4957 80.5393 66.3667 80.1448 69.662C79.7503 72.9573 79.6769 76.2395 79.6769 76.2395C79.6769 76.2395 83.8137 77.7754 86.8976 78.0338C89.9814 78.2922 97.1605 77.6268 97.1605 77.6268L96.2338 58.2857L98.9225 60.782L102.08 57.1365C102.08 57.1365 96.6449 48.7846 95.6172 48.298C94.5894 47.8115 91.7324 48.298 91.7324 48.298C91.7324 48.298 89.705 50.6972 88.8829 50.7307C88.0608 50.7642 86.2372 48.298 86.2372 48.298C86.2372 48.298 83.3238 47.8327 82.4767 48.7846C81.6295 49.7365 77.5613 57.7558 77.5613 57.7558Z" fill="url(#paint8_linear_15_349)"/>
<path d="M83.8279 41.7418C83.8279 41.7418 84.4474 40.1783 85.2562 40.4507C86.0215 40.7085 86.6845 41.3219 87.6367 41.6099C88.5889 41.8978 88.6941 40.6043 89.3412 40.8227C89.9882 41.0411 89.5611 42.9441 90.0172 43.2984C90.4732 43.6528 90.4732 40.8227 91.4455 41.5846C92.4177 42.3465 90.4311 44.491 90.4311 44.491C90.4311 44.491 90.6858 45.8091 90.7675 45.8987C90.8491 45.9884 90.8399 44.9398 90.8399 44.9398C90.8399 44.9398 91.7683 44.5834 92.164 42.9757C92.5598 41.3681 92.7308 40.728 92.164 39.56C91.5973 38.3919 91.4357 37.4771 90.0172 36.926C88.5987 36.375 87.5224 36.5905 86.531 36.926C85.5395 37.2616 84.821 37.9282 84.3625 38.5916C83.2932 40.1662 83.8279 41.7418 83.8279 41.7418Z" fill="#4D364F"/>
<path fill-rule="evenodd" clip-rule="evenodd" d="M179.417 0.508953C178.291 0.853357 154.966 14.8092 154.966 14.8092L161.772 15.3168L166.609 20.6625C166.609 20.6625 180.544 0.164549 179.417 0.508953Z" fill="#E8EAEB"/>
<mask id="mask3_15_349" style="mask-type:luminance" maskUnits="userSpaceOnUse" x="154" y="0" width="26" height="21">
<path fill-rule="evenodd" clip-rule="evenodd" d="M179.417 0.508953C178.291 0.853357 154.966 14.8092 154.966 14.8092L161.772 15.3168L166.609 20.6625C166.609 20.6625 180.544 0.164549 179.417 0.508953Z" fill="white"/>
</mask>
<g mask="url(#mask3_15_349)">
<path fill-rule="evenodd" clip-rule="evenodd" d="M161.773 15.3168L179.418 0.508954L166.61 20.6625L161.773 15.3168Z" fill="#D8DFE6"/>
</g>
<path fill-rule="evenodd" clip-rule="evenodd" d="M175.915 16.6805L167.735 15.8256L179.426 0.653031L175.915 16.6805Z" fill="#E8EAEB"/>
<path fill-rule="evenodd" clip-rule="evenodd" d="M160.854 26.789C161.365 25.7075 161.88 24.5881 162.398 23.4307L163.244 23.8093C162.723 24.9724 162.206 26.0976 161.692 27.1849L160.854 26.789ZM157.526 33.3869C158.091 32.345 158.66 31.2536 159.234 30.1128L160.062 30.5294C159.484 31.6784 158.91 32.7781 158.341 33.8285L157.526 33.3869ZM155.71 36.5968C155.051 37.7068 154.399 38.7471 153.754 39.7175L154.526 40.2306C155.18 39.2466 155.84 38.1929 156.507 37.0696L155.71 36.5968ZM149.233 45.4906C150.015 44.68 150.808 43.7548 151.613 42.7152L152.345 43.2824C151.521 44.3476 150.706 45.298 149.9 46.1338L149.233 45.4906ZM146.511 47.8851C145.428 48.6614 144.373 49.1982 143.347 49.4983L143.607 50.3877C144.739 50.0566 145.887 49.4726 147.051 48.6383L146.511 47.8851ZM136.812 47.9829C137.831 48.8046 138.868 49.3428 139.922 49.6023L139.7 50.5021C138.508 50.2086 137.351 49.6076 136.231 48.7042L136.812 47.9829ZM134.315 45.3508C134.258 45.2756 134.2 45.1995 134.143 45.1224C133.397 44.1184 132.855 43.1655 132.51 42.2654L131.644 42.5975C132.022 43.5808 132.605 44.6065 133.399 45.6751C133.459 45.7555 133.519 45.8349 133.579 45.9133L134.315 45.3508ZM134.093 36.0291C133.092 36.8559 132.448 37.8049 132.186 38.8636L131.286 38.6405C131.599 37.3773 132.356 36.2616 133.503 35.3146L134.093 36.0291ZM137.189 34.2878C138.231 33.8807 139.404 33.5486 140.675 33.298L140.496 32.3888C139.173 32.6496 137.948 32.9966 136.852 33.4247L137.189 34.2878ZM147.93 32.7678C146.697 32.724 145.469 32.7443 144.272 32.8286L144.207 31.9042C145.436 31.8176 146.698 31.7967 147.963 31.8417L147.93 32.7678ZM151.619 33.0926C152.861 33.2695 154.062 33.5117 155.197 33.8154L155.437 32.9202C154.265 32.6068 153.027 32.3572 151.749 32.1752L151.619 33.0926ZM161.716 36.8692C160.868 36.1797 159.834 35.5606 158.641 35.0227L159.022 34.1779C160.285 34.7472 161.387 35.4072 162.301 36.1505L161.716 36.8692ZM163.924 39.6526C164.148 40.1721 164.291 40.7132 164.351 41.276C164.415 41.8714 164.437 42.4698 164.417 43.0714L165.343 43.1017C165.364 42.457 165.341 41.8155 165.272 41.1773C165.202 40.5216 165.035 39.8904 164.775 39.2863L163.924 39.6526ZM162.44 49.9759C163.036 48.8509 163.498 47.7377 163.825 46.6364L164.713 46.9004C164.368 48.0621 163.883 49.232 163.259 50.4099L162.44 49.9759ZM160.478 53.074C159.792 54.0077 159.017 54.9488 158.152 55.8973L158.837 56.5216C159.723 55.5495 160.519 54.5832 161.225 53.6225L160.478 53.074ZM152.831 60.9112C153.815 60.0969 154.736 59.2875 155.594 58.483L156.228 59.1591C155.355 59.9769 154.42 60.7988 153.422 61.625L152.831 60.9112ZM149.911 63.2059C148.958 63.9186 147.959 64.6349 146.913 65.3547L147.438 66.1181C148.494 65.3914 149.503 64.668 150.466 63.9478L149.911 63.2059ZM141.876 68.6254C142.534 68.2202 143.178 67.8161 143.808 67.413L144.307 68.1934C143.673 68.5995 143.025 69.0065 142.362 69.4146L141.876 68.6254Z" fill="#C7D0D9"/>
<defs>
<radialGradient id="paint0_radial_15_349" cx="0" cy="0" r="1" gradientUnits="userSpaceOnUse" gradientTransform="translate(120.57 129.623) rotate(-90) scale(47.5753 496.877)">
<stop stop-color="#EBEDF0" stop-opacity="0.24"/>
<stop offset="0.536775" stop-color="#EBEDF0" stop-opacity="0.845525"/>
<stop offset="1" stop-color="#E0E4E7" stop-opacity="0.01"/>
</radialGradient>
<linearGradient id="paint1_linear_15_349" x1="105.14" y1="158.759" x2="107.366" y2="163.52" gradientUnits="userSpaceOnUse">
<stop stop-color="#E1E7EA"/>
<stop offset="1" stop-color="#D0D6DC"/>
</linearGradient>
<linearGradient id="paint2_linear_15_349" x1="175.924" y1="131.664" x2="179.998" y2="140.16" gradientUnits="userSpaceOnUse">
<stop stop-color="#E1E7EA"/>
<stop offset="1" stop-color="#D0D6DC"/>
</linearGradient>
<linearGradient id="paint3_linear_15_349" x1="47.0471" y1="115.473" x2="49.3521" y2="124.656" gradientUnits="userSpaceOnUse">
<stop stop-color="#FBFBFB"/>
<stop offset="1" stop-color="#D9DFE3"/>
</linearGradient>
<linearGradient id="paint4_linear_15_349" x1="104.158" y1="120.57" x2="112.383" y2="157.453" gradientUnits="userSpaceOnUse">
<stop stop-color="#C4CDD1"/>
<stop offset="1" stop-color="#C6CFD3" stop-opacity="0.01"/>
</linearGradient>
<linearGradient id="paint5_linear_15_349" x1="79.312" y1="124.282" x2="88.8527" y2="149.182" gradientUnits="userSpaceOnUse">
<stop stop-color="#C4CDD1"/>
<stop offset="1" stop-color="#C6CFD3" stop-opacity="0.01"/>
</linearGradient>
<linearGradient id="paint6_linear_15_349" x1="98.0281" y1="114.295" x2="96.6683" y2="75.3575" gradientUnits="userSpaceOnUse">
<stop stop-color="#A1A7B8"/>
<stop offset="1" stop-color="#7B8195"/>
</linearGradient>
<linearGradient id="paint7_linear_15_349" x1="91.3398" y1="48.3766" x2="91.3398" y2="45.1147" gradientUnits="userSpaceOnUse">
<stop stop-color="#FBD8D6"/>
<stop offset="1" stop-color="#EAC0BE" stop-opacity="0.7"/>
</linearGradient>
<linearGradient id="paint8_linear_15_349" x1="65.1578" y1="61.7759" x2="90.9357" y2="88.9691" gradientUnits="userSpaceOnUse">
<stop stop-color="#E5E9F0"/>
<stop offset="1" stop-color="#D2DAE8"/>
</linearGradient>
</defs>
</svg>
